<svg xmlns="http://www.w3.org/2000/svg" width="516" height="516">
    <path style="fill:#fff; stroke:none;" d="M321 98L202 217L173 246L163.207 258L173 270L202 299L321 418L322 418L354 386L354 385L260 291L237 268L229.056 258L237 248L260 225L354 131L354 130L321 98z"/>
</svg>
